<?xml version="1.0" encoding="utf-8"?>
<gpx xmlns:xsd="http://www.w3.org/2001/XMLSchema" xmlns:xsi="http://www.w3.org/2001/XMLSchema-instance" version="1.0" creator="Groundspeak, Inc. All Rights Reserved. http://www.groundspeak.com" xsi:schemaLocation="http://www.topografix.com/GPX/1/0 http://www.topografix.com/GPX/1/0/gpx.xsd http://www.groundspeak.com/cache/1/0/1 http://www.groundspeak.com/cache/1/0/1/cache.xsd" xmlns="http://www.topografix.com/GPX/1/0">
  <name>Cache Listing Generated from Geocaching.com</name>
  <desc>This is an individual cache generated from Geocaching.com</desc>
  <author>Account "RognonRider" From Geocaching.com</author>
  <email>contact@geocaching.com</email>
  <url>https://www.geocaching.com</url>
  <urlname>Geocaching - High Tech Treasure Hunting</urlname>
  <time>2021-03-16T21:05:55.2266415Z</time>
  <keywords>cache, geocache</keywords>
  <bounds minlat="50.663167" minlon="4.131717" maxlat="50.663167" maxlon="4.131717" />
  <wpt lat="50.663167" lon="4.131717">
    <time>2015-09-06T00:00:00</time>
    <name>GC62XHZ</name>
    <desc>Le Bol d'air BONUS by RognonRider, Unknown Cache (2.5/1.5)</desc>
    <url>https://www.geocaching.com/seek/cache_details.aspx?guid=7e138134-1e2c-4d4b-936d-57b27ea2c727</url>
    <urlname>Le Bol d'air BONUS</urlname>
    <sym>Geocache</sym>
    <type>Geocache|Unknown Cache</type>
    <groundspeak:cache id="5217053" available="True" archived="False" xmlns:groundspeak="http://www.groundspeak.com/cache/1/0/1">
      <groundspeak:name>Le Bol d'air BONUS</groundspeak:name>
      <groundspeak:placed_by>RognonRider</groundspeak:placed_by>
      <groundspeak:owner id="4652018">RognonRider</groundspeak:owner>
      <groundspeak:type>Unknown Cache</groundspeak:type>
      <groundspeak:container>Micro</groundspeak:container>
      <groundspeak:attributes />
      <groundspeak:difficulty>2.5</groundspeak:difficulty>
      <groundspeak:terrain>1.5</groundspeak:terrain>
      <groundspeak:country>Belgium</groundspeak:country>
      <groundspeak:state>Brabant wallon</groundspeak:state>
      <groundspeak:short_description html="True">&lt;p&gt;Cache bonus après la balade BOL D'AIR 1 à 5&lt;/p&gt;
&lt;p&gt;N 50° 39.(B+3)1(A+2)  E 4° 7.(A+6)2(B+2)&lt;/p&gt;
&lt;p&gt;Bonus cache na de wandeling BOL D'AIR 1 tot 5&lt;/p&gt;
&lt;p&gt;N 50° 39.(B+3)1(A+2)  E 4° 7.(A+6)2(B+2)&lt;/p&gt;
&lt;p&gt; &lt;/p&gt;

</groundspeak:short_description>
      <groundspeak:long_description html="True">
&lt;p&gt;Additional Hidden Waypoints&lt;/p&gt;FN62XHZ - Final Location&lt;br /&gt;N/S  __ ° __ . ___ W/E ___ ° __ . ___ &lt;br /&gt;N 50° 39.(B+3)1(A+2)  E 4° 7.(A+6)2(B+2)&lt;br /&gt;</groundspeak:long_description>
      <groundspeak:encoded_hints>Tout Petit. A sortir gentillement de la petite maison. Zeer klein. Voorzichtig uit het huisje halen.</groundspeak:encoded_hints>
      <groundspeak:logs>
        <groundspeak:log id="999493249">
          <groundspeak:date>2021-03-10T20:00:00Z</groundspeak:date>
          <groundspeak:type>Found it</groundspeak:type>
          <groundspeak:finder id="21867693">Namours08</groundspeak:finder>
          <groundspeak:text encoded="False">Nous nous étions fixé cet après-midi pour venir parcourir la nouvelle lab cache de Carine et Daniel avec sa bonus.

La météo n'est pas très encourageant ces derniers jours mais l'envie reste présente et il ne pleut pas. Du coup, dès que Monsieur à fini de se faire couper les cheveux, on est parti avec les géodogs pour cette commune peu connue de nous deux.

Après avoir découvert la ville via la lab-cache, nous venons parcourir cette petite série pour découvrir les campagnes. Le vent est bien présent et monsieur le sent encore plus aujourd'hui...
Les 5 caches et la bonus sont toutes trouvées sans aucun soucis. 

Merci à RognonRider pour la pose et l'entretien de ces caches.</groundspeak:text>
        </groundspeak:log>
        <groundspeak:log id="996880707">
          <groundspeak:date>2021-02-28T23:09:34Z</groundspeak:date>
          <groundspeak:type>Found it</groundspeak:type>
          <groundspeak:finder id="20262483">stonga</groundspeak:finder>
          <groundspeak:text encoded="False">:)</groundspeak:text>
        </groundspeak:log>
        <groundspeak:log id="996364837">
          <groundspeak:date>2021-02-27T20:00:00Z</groundspeak:date>
          <groundspeak:type>Found it</groundspeak:type>
          <groundspeak:finder id="10502727">fatamara</groundspeak:finder>
          <groundspeak:text encoded="False">Si le logbook est plein, pourquoi ne pas commencer a le remplir une seconde fois.</groundspeak:text>
        </groundspeak:log>
        <groundspeak:log id="994659793">
          <groundspeak:date>2021-02-16T20:00:00Z</groundspeak:date>
          <groundspeak:type>Found it</groundspeak:type>
          <groundspeak:finder id="20388582">acallut</groundspeak:finder>
          <groundspeak:text encoded="False">Enfin à la 3eme visite c'est ok elle est bien là . Merci pour la cache</groundspeak:text>
        </groundspeak:log>
        <groundspeak:log id="992762275">
          <groundspeak:date>2021-02-06T20:00:00Z</groundspeak:date>
          <groundspeak:type>Didn't find it</groundspeak:type>
          <groundspeak:finder id="32747439">zhfreddy</groundspeak:finder>
          <groundspeak:text encoded="False">Helaas</groundspeak:text>
        </groundspeak:log>
        <groundspeak:log id="989033708">
          <groundspeak:date>2021-01-10T20:00:00Z</groundspeak:date>
          <groundspeak:type>Didn't find it</groundspeak:type>
          <groundspeak:finder id="28935934">NoMaMiSquad</groundspeak:finder>
          <groundspeak:text encoded="False">Vandaag de mist en de kou getrotseerd en een rondje gaan doen in Rebecq, heel veel landschap hebben we niet kunnen zien, maar de kou had de bomen wel een mooi wit jasje gegeven. Bedankt aan de CO voor de caches.

We vonden de bonusletters wel, maar de cache zelf hebben we jammer genoeg niet kunnen vinden, het zal voor een andere keer zijn.</groundspeak:text>
        </groundspeak:log>
        <groundspeak:log id="964882417">
          <groundspeak:date>2020-09-18T19:00:00Z</groundspeak:date>
          <groundspeak:type>Didn't find it</groundspeak:type>
          <groundspeak:finder id="20388582">acallut</groundspeak:finder>
          <groundspeak:text encoded="False">Cette petite série me regardait depuis un certain temps . Longue promenade mais beau circuit. Merci . Toutes serons trouvées , les indices aussi mais pas la bonus  J'y retournerai pour finaliser la série</groundspeak:text>
        </groundspeak:log>
        <groundspeak:log id="950311764">
          <groundspeak:date>2020-07-31T19:00:00Z</groundspeak:date>
          <groundspeak:type>Write note</groundspeak:type>
          <groundspeak:finder id="1224871">TomFromBelgium</groundspeak:finder>
          <groundspeak:text encoded="False">Sans doute trouvé les bonnes coordonnées, mais il faisait trop chaud là pour chercher bcp, après une marche comme ça</groundspeak:text>
        </groundspeak:log>
        <groundspeak:log id="939826009">
          <groundspeak:date>2020-06-25T00:34:23Z</groundspeak:date>
          <groundspeak:type>Found it</groundspeak:type>
          <groundspeak:finder id="29759926">Gwendurant</groundspeak:finder>
          <groundspeak:text encoded="False">Signe g et s car plus de place. Merci pour cette belle balade sous le soleil.👍😁</groundspeak:text>
        </groundspeak:log>
        <groundspeak:log id="939240422">
          <groundspeak:date>2020-06-25T02:14:17Z</groundspeak:date>
          <groundspeak:type>Write note</groundspeak:type>
          <groundspeak:finder id="29744509">ptibabi</groundspeak:finder>
          <groundspeak:text encoded="False">J'ai oublié  de préciser que c'est grâce à Minawoo que nous avons pu clôturer cette belle petite balade 😁</groundspeak:text>
        </groundspeak:log>
        <groundspeak:log id="939217144">
          <groundspeak:date>2020-06-25T00:35:42Z</groundspeak:date>
          <groundspeak:type>Found it</groundspeak:type>
          <groundspeak:finder id="29744509">ptibabi</groundspeak:finder>
          <groundspeak:text encoded="False">Loggué G et S car plus de place ...</groundspeak:text>
        </groundspeak:log>
        <groundspeak:log id="938454652">
          <groundspeak:date>2020-06-21T19:00:00Z</groundspeak:date>
          <groundspeak:type>Found it</groundspeak:type>
          <groundspeak:finder id="28499990">TomTomy08</groundspeak:finder>
          <groundspeak:text encoded="False">Trouvé en compagnie de MiNaWoo</groundspeak:text>
        </groundspeak:log>
        <groundspeak:log id="898005765">
          <groundspeak:date>2019-12-15T20:00:00Z</groundspeak:date>
          <groundspeak:type>Found it</groundspeak:type>
          <groundspeak:finder id="19871756">lesSudrot</groundspeak:finder>
          <groundspeak:text encoded="False">Belle balade campagnarde.  Grand merci pour les caches posées.  
Notre bilan 5/6 (avec la cache bonus).  Pour toute série, il faut un DNF : la #04 cette fois-ci.</groundspeak:text>
        </groundspeak:log>
        <groundspeak:log id="897956300">
          <groundspeak:date>2019-12-15T20:00:00Z</groundspeak:date>
          <groundspeak:type>Didn't find it</groundspeak:type>
          <groundspeak:finder id="15643101">acidtroll</groundspeak:finder>
          <groundspeak:text encoded="False">:-(</groundspeak:text>
        </groundspeak:log>
        <groundspeak:log id="876959042">
          <groundspeak:date>2019-08-23T19:00:00Z</groundspeak:date>
          <groundspeak:type>Found it</groundspeak:type>
          <groundspeak:finder id="21504544">ETA2015</groundspeak:finder>
          <groundspeak:text encoded="False">Le Bol d'air est pris aujourd'hui. Oh, évidemment, on le prend avec des caches sur la route et la balade est plus que sympathique. Voitures absentes, routes dégagées, il n'y aura qu'un tracteur pour "perturber" le calme campagnard... En tout, 3 des 5 caches tradi seront trouvées, la première étant manifestement absente et la 5ème ayant réussi à me décourager. Y'aura plus qu'à calculer la bonus (les 2 indices sont heureusement connus). Oh, quel bel endroit... Un instant plus tard, elle est dans mes mains.

Merci pour la balade et évidemment merci pour les caches.</groundspeak:text>
        </groundspeak:log>
        <groundspeak:log id="876840095">
          <groundspeak:date>2019-08-24T00:36:32Z</groundspeak:date>
          <groundspeak:type>Found it</groundspeak:type>
          <groundspeak:finder id="23024825">Noni2kan</groundspeak:finder>
          <groundspeak:text encoded="False">Super, il nous manquait 2 caches de la série mais la bonus est facilement dénichée par ses petits doigts effrités... là encore, un beau petit endroit! Vite, une bière en terrasse à 2 pas pour nous récompenser!</groundspeak:text>
        </groundspeak:log>
        <groundspeak:log id="936315289">
          <groundspeak:date>2019-05-01T19:00:00Z</groundspeak:date>
          <groundspeak:type>Didn't find it</groundspeak:type>
          <groundspeak:finder id="21659820">CherryMs</groundspeak:finder>
          <groundspeak:text encoded="False">Mise à jour de caches faites en 2019, malheureusement nous avons trouvé uniquement un seul des indices.... Après réflexion nous trouvons l'endroit ou devrait se trouver la bonus mais sans précision, impossible de la trouver après une très longue recherche.....</groundspeak:text>
        </groundspeak:log>
        <groundspeak:log id="845450436">
          <groundspeak:date>2019-04-28T19:00:00Z</groundspeak:date>
          <groundspeak:type>Found it</groundspeak:type>
          <groundspeak:finder id="6951193">marickvdv</groundspeak:finder>
          <groundspeak:text encoded="False">Petite promenade dans le village de Rebecq afin de déloger la série "bol d'air" et quelques caches hors série qui se présentent à nous.

Trouvée facilement.

#9610#</groundspeak:text>
        </groundspeak:log>
        <groundspeak:log id="826932702">
          <groundspeak:date>2019-01-31T03:59:33Z</groundspeak:date>
          <groundspeak:type>Found it</groundspeak:type>
          <groundspeak:finder id="22191294">BenSan8081</groundspeak:finder>
          <groundspeak:text encoded="False">Na een geweldig leuk en rustig ontdekkingstochtje buiten het centrum van Rebecq hebben we toch 4 van de 5 caches kunnen traceren en loggen en gelukkig voor ons werden tevens de codes gevonden, die nodig waren om de coördinaten op te lossen. Op naar de bonus dus ... maar op grond zero, doet de gps dan weer even moeilijk! Fraai plekje dat ons al snel zijn geheim heeft prijsgegeven. Maar opgelet voor de muggles met hun viervoeters, die wel allemaal erg vriendelijk bleven staan voor een babbel. TFTC en het mooie en verzorgde rondje, nu dringend opwarmen in het dichtsbijzijnde cafeetje met een lekkere maar straffe (!) chouffe coffee!! </groundspeak:text>
        </groundspeak:log>
        <groundspeak:log id="803000768">
          <groundspeak:date>2018-09-18T19:00:00Z</groundspeak:date>
          <groundspeak:type>Found it</groundspeak:type>
          <groundspeak:finder id="15415276">teamharibol</groundspeak:finder>
          <groundspeak:text encoded="False">au 3eme passage sa sera la bonne, par contre, je comprenais pas pourquoi l'avoir mise si haute limite impossible a prendre vu la place, après j'ai compris plus bas elle a fais un plongeon :(, désoler.

une petite maintenance sera a mon avis obliger, 

merci pour la cache, et la fin de cette belle série

Les 10 commandements du géocacheur
1. Tu feras preuve dans ta recherche de beaucoup de discrétion et de furtivité.
2. Tu replaceras a l'emplacement d'origine chaque géocache trouvée.
3. Tu camoufleras avec soins chacune des boites découvertes.
4. Tu accepteras l'échec sans fâcherie ni amertume et logueras ton "DNF".
5. Tu remplaceras chaque objet pris par un autre objet de valeur égale ou supérieure.
6. Tu logueras et déplaceras les objets voyageurs et en aucun cas tu ne les conserveras.
7. Tu t'abstiendras de loguer une géocache qui ne te plait pas puisqu' elle est indigne de toi.
8. Tu assureras la maintenance d'urgence des caches en péril grâce aux boites, logs, et sachets étanches que tu transportes toujours avec toi.
9. Tu apporteras ton propre stylo et signeras le log physique de chaque géocache.
10. Tu signeras le log en ligne d'une phrase plutôt que d'un mot en évitant les simples "MPLC" et les "." (Point).

teamharibol.</groundspeak:text>
        </groundspeak:log>
      </groundspeak:logs>
      <groundspeak:travelbugs />
    </groundspeak:cache>
  </wpt>
</gpx>