<?xml version="1.0" encoding="utf-8"?>
<gpx xmlns:xsd="http://www.w3.org/2001/XMLSchema"
xmlns:xsi="http://www.w3.org/2001/XMLSchema-instance"
version="1.0" creator="GSAK"
xsi:schemaLocation="http://www.topografix.com/GPX/1/0 http://www.topografix.com/GPX/1/0/gpx.xsd http://www.groundspeak.com/cache/1/0/1 http://www.groundspeak.com/cache/1/0/1/cache.xsd http://www.gsak.net/xmlv1/6 http://www.gsak.net/xmlv1/6/gsak.xsd"
xmlns="http://www.topografix.com/GPX/1/0">
 <desc>Geocache file generated by GSAK (HasChildren)</desc>
 <author>GSAK</author>
 <email>support@gsak.net</email>
 <time>2021-04-04T19:24:16Z</time>
 <keywords>cache, geocache, groundspeak</keywords>
 <bounds minlat="50.629333" minlon="4.2092" maxlat="50.642083" maxlon="4.237317"/>
 <wpt lat="50.6456" lon="4.645654">
  <time>2021-03-21T08:00:00Z</time>
  <name>Parking</name>
  <desc>Parking Area by  (1/1)</desc>
  <url>https://www.geocaching.com/seek/wpt.aspx?WID=</url>
  <urlname>Parking Area by </urlname>
  <sym>Geocache</sym>
  <type>Geocache|Other</type>
    <gsak:wptExtension xmlns:gsak="http://www.gsak.net/xmlv1/6">
      <gsak:UserFlag>false</gsak:UserFlag>
      <gsak:Lock>false</gsak:Lock>
      <gsak:DNF>false</gsak:DNF>
      <gsak:Watch>false</gsak:Watch>
      <gsak:UserData></gsak:UserData>
      <gsak:FirstToFind>false</gsak:FirstToFind>
      <gsak:User2></gsak:User2>
      <gsak:User3></gsak:User3>
      <gsak:User4></gsak:User4>
      <gsak:County></gsak:County>
      <gsak:UserSort>0</gsak:UserSort>
      <gsak:SmartName>ParkingA</gsak:SmartName>
      <gsak:LastGpxDate>2021-03-21</gsak:LastGpxDate>
      <gsak:Code>Parking</gsak:Code>
      <gsak:Resolution></gsak:Resolution>
      <gsak:IsPremium>false</gsak:IsPremium>
      <gsak:FavPoints>0</gsak:FavPoints>
      <gsak:GcNote></gsak:GcNote>
      <gsak:Guid></gsak:Guid>
      <gsak:CacheImages>
      </gsak:CacheImages>
      <gsak:LogImages>
      </gsak:LogImages>
      <gsak:CustomData>
Custom_Start:cCode:Custom_Data:Parking:Custom_End
Custom_Start:CorOnline:Custom_Data:0:Custom_End

      </gsak:CustomData>
    </gsak:wptExtension>
  <groundspeak:cache id="99000003" available="True" archived="False" xmlns:groundspeak="http://www.groundspeak.com/cache/1/0/1">
   <groundspeak:name>Parking Area</groundspeak:name>
   <groundspeak:placed_by></groundspeak:placed_by>
   <groundspeak:owner id=""></groundspeak:owner>
   <groundspeak:type>Other</groundspeak:type>
   <groundspeak:container>Unknown</groundspeak:container>
   <groundspeak:attributes>
   </groundspeak:attributes>
   <groundspeak:difficulty>1</groundspeak:difficulty>
   <groundspeak:terrain>1</groundspeak:terrain>
   <groundspeak:country></groundspeak:country>
   <groundspeak:state></groundspeak:state>
   <groundspeak:short_description html="False"> </groundspeak:short_description>
   <groundspeak:long_description html="False"> </groundspeak:long_description>
    <groundspeak:encoded_hints></groundspeak:encoded_hints>
   <groundspeak:logs>
  </groundspeak:logs>
   <groundspeak:travelbugs>
   </groundspeak:travelbugs>
</groundspeak:cache>
</wpt>
</gpx>
